{
    "given_name": "Anton",
    "family_name": "Ehunov",
    "nickname": "anton.ehunov",
    "name": "Anton Ehunov",
    "picture": "https://lh3.googleusercontent.com/a-/AOh14Gixxgzmosw942bnmFj_lk_XMrPMiWY7YoQWl09G",
    "locale": "en-GB",
    "updated_at": "2020-05-23T12:05:04.173Z",
    "email": "anton.ehunov@gmail.com",
    "email_verified": true,
    "iss": "https://dvlpm.auth0.com/",
    "sub": "google-oauth2|104764396808992525451",
    "aud": "jRaKy7JlugUBCSxyn5si5MiMt0lZV9Fg",
    "iat": 1590235505,
    "exp": 1590271505,
    "nonce": "0fb68de6c70e53b54b3fc83e5ae0d87f"
}
